{
  "total": 4,
  "page": 0,
  "pageSize": 4,
  "content": [
    {
      "url": "../../assets/Images/banner2.jpg",
      "thumb": "../../assets/Images/banner2.jpg",
      "_id": "5f6334270fed3036e8e2297f",
      "filename": "Gói MOTEL",
      "price": "700000",
      "color": "blue",
      "origin": "Còn hàng",
      "standard": "New",
      "description": "Để có một mẫu trang trí background sinh nhật đẹp cho bé nhân ngày sinh nhật của bé. Chúng tôi đã không ngừng học hỏi, và tìm hiểu những mẫu đa dạng phù hợp với bé. Hi vọng những mẫu background sinh nhật đẹp như thế này sẽ để ai những ấn tượng cho bé cũng như những họ hàng của bé đến dự buổi tiệc sinh nhật. Trang trí bong bóng sinh nhật, nghệ thuật kết bóng, mang lại vẽ đẹp cho đời",
      "type": "sale",
      "createdAt": "2021-07-17T10:02:15.752Z",
      "updatedAt": "2021-07-17T10:02:15.752Z",
      "__v": 0
    },
    {
      "url": "../../assets/Images/banner2.jpg",
      "thumb": "../../assets/Images/banner2.jpg",
      "_id": "5f6334530fed3036e8e22980",
      "filename": "Gói HOMESTAY",
      "price": "550000",
      "color": "purple",
      "origin": "Còn hàng",
      "standard": "New",
      "description": "Để có một mẫu trang trí background sinh nhật đẹp cho bé nhân ngày sinh nhật của bé. Chúng tôi đã không ngừng học hỏi, và tìm hiểu những mẫu đa dạng phù hợp với bé. Hi vọng những mẫu background sinh nhật đẹp như thế này sẽ để ai những ấn tượng cho bé cũng như những họ hàng của bé đến dự buổi tiệc sinh nhật. Trang trí bong bóng sinh nhật, nghệ thuật kết bóng, mang lại vẽ đẹp cho đời",
      "type": "sale",
      "createdAt": "2021-07-17T10:02:59.345Z",
      "updatedAt": "2021-07-17T10:02:59.345Z",
      "__v": 0
    },
    {
      "url": "../../assets/Images/banner2.jpg",
      "thumb": "../../assets/Images/banner2.jpg",
      "_id": "5f6334b20fed3036e8e22981",
      "filename": "Gói HOMESTAY",
      "price": "650000",
      "color": "pink",
      "origin": "Còn hàng",
      "standard": "New",
      "description": "Để có một mẫu trang trí background sinh nhật đẹp cho bé nhân ngày sinh nhật của bé. Chúng tôi đã không ngừng học hỏi, và tìm hiểu những mẫu đa dạng phù hợp với bé. Hi vọng những mẫu background sinh nhật đẹp như thế này sẽ để ai những ấn tượng cho bé cũng như những họ hàng của bé đến dự buổi tiệc sinh nhật. Trang trí bong bóng sinh nhật, nghệ thuật kết bóng, mang lại vẽ đẹp cho đời",
      "type": "sale",
      "createdAt": "2021-07-17T10:04:34.439Z",
      "updatedAt": "2021-07-17T10:04:34.439Z",
      "__v": 0
    },
    {
      "url": "../../assets/Images/banner2.jpg",
      "thumb": "../../assets/Images/banner2.jpg",
      "_id": "5f6334fe0fed3036e8e22982",
      "filename": "Gói HOMESTAY",
      "price": "650000",
      "color": "blue",
      "origin": "Còn hàng",
      "standard": "New",
      "description": "Để có một mẫu trang trí background sinh nhật đẹp cho bé nhân ngày sinh nhật của bé. Chúng tôi đã không ngừng học hỏi, và tìm hiểu những mẫu đa dạng phù hợp với bé. Hi vọng những mẫu background sinh nhật đẹp như thế này sẽ để ai những ấn tượng cho bé cũng như những họ hàng của bé đến dự buổi tiệc sinh nhật. Trang trí bong bóng sinh nhật, nghệ thuật kết bóng, mang lại vẽ đẹp cho đời",
      "type": "sale",
      "createdAt": "2021-07-17T10:05:50.921Z",
      "updatedAt": "2021-07-17T10:05:50.921Z",
      "__v": 0
    }
  ]
}
